Compute tree aboveground biomass (AGB) based on allometric equations — get_biomass • allodb
…
    See also

    weight_allom(), new_equations()

    Examples

# Estimate biomass of all individuals from the Lauraceae family at the SCBI
# plot
lau <- subset(scbi_stem1, Family == "Lauraceae")
lau$agb <- get_biomass(lau$dbh, lau$genus, lau$species,
  coords = c(-78.2, 38.9)
)
lau
#> # A tibble: 1,209 × 7
#>    treeID stemID   dbh genus   species Family        agb
#>     <int>  <int> <dbl> <chr>   <chr>   <chr>       <dbl>
#>  1      2      2  2.37 Lindera benzoin Lauraceae  0.731 
#>  2      2  31195  1.07 Lindera benzoin Lauraceae  0.0989
#>  3      1  31194  1.6  Lindera benzoin Lauraceae  0.272 
#>  4     13  36481  1.34 Lindera benzoin Lauraceae  0.174 
#>  5     15  31208  1.27 Lindera benzoin Lauraceae  0.152 
#>  6     13     13  1.54 Lindera benzoin Lauraceae  0.247 
#>  7     13  31206  1.37 Lindera benzoin Lauraceae  0.184 
#>  8     15     15  1.55 Lindera benzoin Lauraceae  0.251 
#>  9     16  38297  1.1  Lindera benzoin Lauraceae  0.106 
#> 10     17     17  6.82 Lindera benzoin Lauraceae 10.4   
#> # ℹ 1,199 more rows

# Estimate biomass from multiple sites (using scbi_stem1 as example with
# multiple coord)
dat <- scbi_stem1[1:100, ]
dat$long <- c(rep(-78, 50), rep(-80, 50))
dat$lat <- c(rep(40, 50), rep(41, 50))
dat$biomass <- get_biomass(
  dbh = dat$dbh,
  genus = dat$genus,
  species = dat$species,
  coords = dat[, c("long", "lat")]
)
dat
#> # A tibble: 100 × 9
#>    treeID stemID   dbh genus species Family       long   lat biomass
#>     <int>  <int> <dbl> <chr> <chr>   <chr>       <dbl> <dbl>   <dbl>
#>  1   2695   2695  1.41 Acer  negundo Sapindaceae   -78    40  0.183 
#>  2   1229  38557  1.67 Acer  negundo Sapindaceae   -78    40  0.282 
#>  3   1230   1230  1.42 Acer  negundo Sapindaceae   -78    40  0.187 
#>  4   1295  32303  1.04 Acer  negundo Sapindaceae   -78    40  0.0842
#>  5   1229  32273  2.47 Acer  negundo Sapindaceae   -78    40  0.766 
#>  6     66  31258  2.19 Acer  negundo Sapindaceae   -78    40  0.564 
#>  7   2600   2600  1.81 Acer  negundo Sapindaceae   -78    40  0.347 
#>  8   4936   4936  1.35 Acer  negundo Sapindaceae   -78    40  0.164 
#>  9   1229  36996  2.05 Acer  negundo Sapindaceae   -78    40  0.476 
#> 10   1005   1005  1.41 Acer  negundo Sapindaceae   -78    40  0.183 
#> # ℹ 90 more rows
…
