Modify the original equation table — new_equations • allodb
…
    Value

An object of class "data.frame" of new equations.

    Examples

new_equations(
  new_taxa = "Faga",
  new_allometry = "exp(-2+log(dbh)*2.5)",
  new_coords = c(-0.07, 46.11),
  new_min_dbh = 5,
  new_max_dbh = 50,
  new_sample_size = 50
)
#> # A tibble: 478 × 15
#>    equation_id equation_taxa           equation_allometry   independent_variable
#>    <chr>       <chr>                   <chr>                <chr>               
#>  1 726f1d      Larix laricina          10^(2.648+0.715*(lo… DBH                 
#>  2 a4d879      Acer saccharum          10^(1.2315+1.6376*(… DBH                 
#>  3 b9ebe4      Alnus rubra             exp(5.13118+2.15046… DBH                 
#>  4 5e2dea      Viburnum lantanoides    29.615*((1.488+1.19… DBH                 
#>  5 21800b      Pinus strobus           exp(5.2831+2.0369*l… DBH                 
#>  6 1257b1      Abies                   exp(3.1689+2.6825*l… DBH                 
#>  7 9e2124      Populus davidiana       10^(1.826+2.558*(lo… DBH                 
#>  8 74d0ce      Ostrya virginiana       exp(4.89+2.3*log(db… DBH                 
#>  9 94f593      Liriodendron tulipifera 10^(0.8306+1.527*(l… DBH                 
#> 10 8c94e8      Nyssa sylvatica         10^(1.1468+1.4806*(… DBH                 
#> # ℹ 468 more rows
#> # ℹ 11 more variables: dependent_variable <chr>, long <chr>, lat <chr>,
#> #   koppen <chr>, dbh_min_cm <dbl>, dbh_max_cm <dbl>, sample_size <dbl>,
#> #   dbh_units_original <chr>, dbh_unit_cf <dbl>, output_units_original <chr>,
#> #   output_units_cf <dbl>
…
